<?xml version="1.0" standalone="no"?>
<!DOCTYPE svg PUBLIC "-//W3C//DTD SVG 20010904//EN"
 "http://www.w3.org/TR/2001/REC-SVG-20010904/DTD/svg10.dtd">
<svg version="1.0" xmlns="http://www.w3.org/2000/svg"
 width="700.000000pt" height="700.000000pt" viewBox="0 0 700.000000 700.000000"
 preserveAspectRatio="xMidYMid meet">
<metadata>
Created by potrace 1.11, written by Peter Selinger 2001-2013
</metadata>
<g transform="translate(0.000000,700.000000) scale(0.100000,-0.100000)"
fill="#000000" stroke="none">
<path d="M2249 6967 c-13 -12 -78 -69 -144 -127 -66 -58 -125 -109 -131 -115
-6 -5 -37 -33 -70 -62 -32 -28 -77 -68 -99 -88 -22 -20 -52 -46 -67 -57 l-26
-22 126 -188 c125 -184 127 -187 139 -160 7 15 51 135 99 267 47 132 112 314
145 404 33 90 58 165 56 167 -2 2 -14 -7 -28 -19z"/>
<path d="M3214 6760 c4 -52 9 -108 11 -125 5 -36 12 -104 25 -233 5 -54 12
-117 14 -142 3 -25 8 -72 11 -105 3 -33 8 -76 10 -95 2 -19 6 -60 9 -90 15
-147 18 -175 23 -180 10 -10 634 -5 642 5 4 5 34 80 66 165 32 85 84 220 115
300 l56 145 -31 112 c-17 62 -33 115 -36 118 -4 3 -98 -39 -210 -94 -344 -166
-402 -192 -409 -184 -6 7 -196 333 -252 433 -44 79 -51 74 -44 -30z"/>
<path d="M4265 6715 c-42 -23 -42 -25 -22 -94 l14 -44 23 64 c13 35 27 69 32
76 17 22 -7 21 -47 -2z"/>
<path d="M2890 6584 c-357 -230 -422 -272 -647 -414 -117 -74 -211 -139 -209
-145 8 -26 692 -1012 699 -1008 5 3 17 24 27 47 10 22 80 167 155 321 75 154
148 305 162 335 14 30 29 57 34 61 5 3 32 5 59 4 l51 -1 -6 60 c-3 34 -8 77
-10 96 -2 19 -7 64 -10 100 -3 36 -8 81 -10 100 -3 19 -7 60 -9 90 -3 30 -7
78 -10 105 -3 28 -8 75 -11 105 -8 91 -18 184 -21 200 -1 8 -3 32 -3 53 -1 20
-4 37 -8 36 -5 0 -109 -65 -233 -145z"/>
<path d="M4380 6540 c-60 -154 -62 -161 -51 -202 7 -24 16 -56 20 -73 5 -16
38 -130 75 -253 36 -122 66 -224 66 -225 0 -1 131 -2 290 -2 160 0 290 -1 290
-2 0 -4 -49 -109 -111 -242 -33 -68 -59 -125 -59 -126 0 -2 -32 -70 -71 -152
-39 -81 -80 -170 -91 -196 l-21 -48 32 -107 c18 -59 39 -126 48 -148 l15 -42
116 78 c148 97 454 299 782 515 656 431 591 384 569 406 -20 20 -24 35 -10 41
5 2 42 33 82 69 41 37 192 171 337 298 225 200 289 259 255 238 -5 -3 -26 -8
-48 -11 -99 -16 -438 -73 -471 -80 -12 -2 -39 -7 -60 -10 -101 -16 -161 -26
-184 -31 -14 -3 -41 -8 -60 -11 -40 -6 -43 -7 -207 -34 -67 -12 -130 -22 -140
-24 -95 -18 -97 -18 -178 19 -44 20 -100 45 -125 56 -25 12 -63 29 -85 39 -62
28 -876 391 -911 406 l-31 13 -63 -159z"/>
<path d="M1624 6412 c-16 -15 -48 -43 -70 -62 -80 -69 -370 -325 -409 -361
-22 -21 -50 -45 -63 -56 l-22 -18 96 -80 c54 -44 102 -85 108 -90 6 -6 79 -66
161 -135 83 -68 152 -127 155 -130 3 -3 57 -48 120 -99 63 -52 120 -99 125
-105 6 -6 37 -33 69 -59 33 -26 82 -68 110 -91 28 -24 107 -90 176 -147 69
-57 130 -109 136 -114 6 -6 41 -35 78 -65 36 -29 66 -58 66 -63 0 -9 -96 -174
-276 -475 -41 -68 -74 -127 -74 -131 0 -5 33 -16 73 -25 39 -10 80 -20 89 -22
14 -4 26 13 57 78 71 150 190 401 315 661 l57 118 -54 77 c-57 81 -365 524
-520 747 -163 234 -156 226 -179 214 -26 -14 -31 -8 -18 27 10 25 7 33 -21 74
-18 25 -80 113 -137 195 -58 83 -108 153 -111 157 -4 4 -20 -5 -37 -20z"/>
<path d="M4242 6190 c-5 -14 -42 -106 -82 -205 -40 -99 -74 -184 -76 -190 -5
-11 280 -14 291 -3 4 4 -2 35 -13 70 -11 35 -32 106 -47 158 -15 52 -36 118
-45 145 -17 48 -19 49 -28 25z"/>
<path d="M949 5817 c-25 -23 -74 -67 -109 -97 -35 -30 -75 -66 -90 -80 -15
-14 -94 -83 -174 -154 -81 -71 -143 -132 -139 -136 8 -8 43 -19 516 -167 l279
-87 -69 -22 c-37 -12 -288 -90 -558 -174 -269 -83 -493 -155 -497 -158 -3 -4
78 -57 180 -119 l187 -112 300 -71 c165 -39 305 -73 310 -74 6 -2 28 -7 50
-11 22 -5 42 -10 45 -10 3 -1 16 -5 30 -8 81 -21 739 -178 771 -183 28 -5 36
5 183 236 26 41 82 130 125 197 l79 121 -241 204 c-132 112 -274 232 -316 267
-79 65 -140 118 -201 169 -62 53 -262 222 -380 321 -63 53 -121 101 -128 108
-23 22 -99 83 -103 83 -2 0 -25 -19 -50 -43z"/>
<path d="M5934 5433 c-208 -140 -484 -325 -612 -411 -128 -86 -240 -161 -250
-167 -9 -5 -19 -12 -22 -16 -3 -3 -52 -36 -109 -75 -58 -38 -108 -71 -112 -74
-10 -7 0 -46 66 -270 20 -69 38 -126 39 -127 1 -1 83 -23 182 -48 98 -25 249
-64 334 -86 85 -23 164 -43 175 -45 11 -2 78 -19 149 -38 l130 -33 54 51 c30
28 78 74 107 101 29 28 88 84 132 125 43 41 146 138 227 215 82 77 168 158
191 180 105 101 345 328 364 344 l22 19 -138 122 c-76 68 -169 150 -207 184
-38 34 -74 66 -80 71 -6 6 -67 60 -137 122 l-125 111 -380 -255z"/>
<path d="M4597 4772 l-47 -107 -448 1 c-380 0 -450 -2 -464 -14 -10 -8 -18
-19 -18 -24 0 -4 -34 -95 -76 -200 -42 -106 -76 -202 -76 -213 0 -31 41 -337
46 -342 2 -2 23 9 47 26 43 29 865 572 1061 700 93 61 96 64 88 92 -25 85 -54
175 -59 181 -3 3 -27 -42 -54 -100z"/>
<path d="M4590 4533 c-69 -47 -300 -204 -515 -348 -589 -396 -536 -357 -518
-386 13 -21 37 -29 176 -63 89 -21 225 -54 302 -73 77 -19 149 -36 160 -38 11
-3 68 -16 127 -31 l106 -26 584 167 c320 91 621 178 668 192 l85 26 -170 41
c-94 23 -297 73 -452 111 l-281 69 -52 171 c-28 93 -53 178 -55 188 -7 33 -29
87 -35 86 -3 0 -61 -39 -130 -86z"/>
<path d="M418 4338 c-36 -40 -78 -87 -94 -104 -128 -137 -227 -245 -243 -265
l-20 -25 76 -60 c41 -32 80 -64 86 -69 7 -6 68 -55 137 -110 69 -55 132 -105
140 -112 8 -7 165 -132 348 -278 225 -180 332 -271 328 -281 -4 -9 2 -14 17
-15 12 0 29 -2 37 -4 8 -2 94 -19 190 -39 97 -19 187 -37 200 -40 272 -56 352
-68 373 -58 73 37 122 72 119 86 -1 8 -41 94 -87 191 -47 97 -85 181 -85 185
0 8 37 89 145 315 123 258 145 306 148 317 2 9 -105 42 -198 62 -24 5 -333 81
-1017 250 -280 69 -514 126 -521 126 -7 0 -43 -33 -79 -72z"/>
<path d="M3342 3917 c-25 -71 -27 -84 -9 -84 6 0 29 -4 50 -8 l39 -8 -7 59
c-5 40 -14 66 -29 81 l-21 23 -23 -63z"/>
<path d="M3231 3873 c-10 -26 -10 -27 4 -9 8 11 15 23 15 28 0 15 -7 8 -19
-19z"/>
<path d="M5460 3788 c-217 -60 -403 -111 -412 -114 -10 -2 -26 -6 -35 -9 -24
-6 -346 -94 -403 -110 l-45 -12 44 -12 c24 -7 164 -41 310 -76 309 -74 378
-90 796 -191 171 -41 356 -86 413 -100 56 -13 148 -35 205 -48 56 -14 196 -48
310 -75 115 -28 216 -51 226 -51 10 0 30 15 45 34 l26 35 -32 23 c-18 12 -40
30 -49 38 -9 8 -54 45 -100 81 -46 36 -263 209 -481 383 -218 174 -403 315
-410 315 -7 -1 -191 -51 -408 -111z"/>
<path d="M3136 3678 c-35 -77 -37 -90 -10 -67 17 14 64 110 64 129 0 29 -24 1
-54 -62z"/>
<path d="M3265 3719 c-11 -17 1 -21 15 -4 8 9 8 15 2 15 -6 0 -14 -5 -17 -11z"/>
<path d="M3299 3661 l-74 -47 -87 -218 c-101 -253 -111 -232 87 -172 66 20
149 44 183 53 l64 18 -7 70 c-4 38 -8 84 -10 100 -2 17 -7 59 -10 95 -10 114
-14 128 -45 138 -24 9 -37 4 -101 -37z"/>
<path d="M3534 3658 c-6 -9 -2 -61 11 -188 2 -19 7 -61 10 -93 5 -44 10 -57
20 -53 8 3 33 10 57 17 24 7 45 13 48 14 3 1 26 8 53 16 29 8 46 18 43 25 -3
7 -43 66 -90 132 -62 88 -93 123 -115 130 -21 8 -33 8 -37 0z"/>
<path d="M3745 3519 c43 -63 79 -115 80 -117 2 -2 38 7 81 18 44 12 123 33
177 47 54 14 95 29 90 33 -4 4 -109 32 -233 63 -124 31 -236 60 -248 63 -20 6
-11 -12 53 -107z"/>
<path d="M3068 3507 c-25 -21 -88 -137 -88 -163 0 -18 22 -64 30 -64 5 0 76
175 95 238 6 18 -6 14 -37 -11z"/>
<path d="M4268 3465 c-2 -3 -87 -28 -189 -55 -101 -28 -192 -53 -201 -56 -15
-4 -11 -14 26 -67 23 -34 82 -120 131 -192 293 -431 315 -462 316 -449 6 68 3
802 -4 812 -9 12 -68 17 -79 7z"/>
<path d="M4489 3403 c-2 -43 -6 -201 -14 -513 -3 -157 -8 -316 -9 -353 l-3
-69 76 -108 c74 -107 112 -162 315 -460 54 -80 103 -148 109 -152 5 -3 31 0
56 7 25 8 98 27 161 44 63 16 225 59 360 95 135 36 416 111 625 167 209 55
405 107 435 115 30 9 64 17 75 20 11 2 67 17 125 32 l105 29 -40 25 c-22 13
-120 73 -217 133 -98 59 -178 110 -178 114 0 3 15 22 33 42 17 20 70 78 116
130 47 52 100 110 118 130 l34 36 -458 113 c-252 63 -462 115 -468 116 -5 1
-68 17 -140 34 -71 18 -137 33 -145 35 -8 2 -44 11 -80 20 -36 9 -72 18 -80
20 -26 5 -874 215 -892 221 -14 4 -18 -1 -19 -23z"/>
<path d="M3725 3315 c-44 -13 -99 -28 -122 -34 -39 -11 -41 -13 -38 -44 2 -17
7 -59 10 -92 3 -33 8 -78 10 -100 2 -22 7 -65 10 -95 4 -51 9 -100 20 -205 2
-22 7 -71 10 -110 4 -38 8 -83 11 -100 2 -16 6 -59 9 -95 3 -36 8 -78 10 -95
2 -16 7 -66 11 -110 3 -44 7 -87 9 -95 2 -8 6 -46 9 -85 4 -38 11 -110 17
-160 5 -49 11 -110 13 -135 3 -25 7 -67 10 -95 8 -68 15 -139 21 -210 3 -33 7
-76 10 -95 2 -19 7 -64 10 -100 3 -36 8 -85 11 -110 2 -25 6 -65 9 -90 3 -25
7 -70 10 -100 3 -30 7 -75 10 -100 10 -94 14 -137 20 -200 3 -36 8 -78 10 -95
2 -16 7 -66 11 -110 4 -44 8 -87 10 -95 1 -8 3 -32 3 -52 1 -21 5 -38 10 -38
5 0 276 170 602 378 687 437 624 398 616 386 -6 -10 -240 -650 -263 -719 -7
-22 -35 -100 -62 -173 -27 -72 -46 -132 -43 -132 3 0 31 24 63 53 31 28 78 71
105 93 58 50 73 63 165 145 40 35 95 84 123 109 28 25 84 74 125 110 40 36 83
74 96 85 12 11 48 43 80 70 32 28 73 64 90 80 l33 30 -290 415 c-160 228 -293
418 -297 422 -4 4 -34 0 -67 -8 -33 -9 -67 -17 -75 -19 -45 -10 -130 -30 -257
-61 -77 -19 -150 -36 -161 -39 -11 -2 -37 -8 -58 -14 -70 -19 -70 -19 -68 57
1 37 5 243 9 457 4 215 8 434 10 487 l2 98 -103 147 c-57 82 -131 188 -166
238 -35 49 -67 97 -73 106 -9 15 -40 60 -148 214 -21 30 -42 55 -45 54 -4 -1
-43 -11 -87 -24z"/>
<path d="M3400 3225 c-25 -7 -106 -30 -180 -51 -74 -20 -136 -38 -138 -39 -4
-4 36 -87 457 -946 l51 -104 -6 75 c-3 41 -7 86 -9 100 -2 14 -6 61 -10 105
-4 44 -8 87 -10 95 -1 8 -6 51 -9 95 -4 44 -9 91 -11 105 -2 14 -6 57 -10 95
-6 71 -12 127 -20 200 -2 22 -7 72 -11 110 -4 39 -8 79 -9 90 -1 11 -3 35 -4
53 -1 37 -10 38 -81 17z"/>
<path d="M1054 2917 c-6 -7 -44 -43 -85 -82 -251 -236 -379 -358 -376 -361 2
-2 66 15 142 37 77 23 154 44 170 49 17 4 134 38 260 75 127 36 237 68 245 70
88 22 308 91 302 96 -4 3 -52 14 -107 24 -55 10 -104 20 -110 21 -5 1 -99 20
-208 43 -220 45 -218 45 -233 28z"/>
<path d="M1485 2700 c-159 -44 -348 -96 -420 -116 -71 -20 -137 -38 -145 -40
-8 -2 -91 -24 -185 -49 -93 -24 -170 -45 -171 -45 0 0 -83 -78 -195 -184 -47
-44 -149 -141 -227 -215 l-142 -134 23 -19 c12 -11 51 -46 87 -77 36 -32 79
-69 95 -83 l30 -25 165 109 c405 268 536 353 545 358 6 3 64 41 130 84 225
149 640 421 702 461 35 22 63 43 63 48 0 18 -85 1 -355 -73z"/>
<path d="M1680 2570 c-302 -204 -588 -397 -1040 -700 -173 -116 -319 -215
-323 -219 -4 -4 40 -50 99 -102 59 -52 118 -105 133 -119 14 -14 64 -59 110
-100 l83 -74 -48 -44 c-27 -24 -78 -69 -114 -100 -35 -32 -71 -64 -80 -72 -9
-8 -49 -44 -90 -80 -41 -36 -117 -103 -170 -150 -53 -47 -114 -101 -136 -120
-58 -51 -61 -59 -16 -50 35 8 66 13 152 26 19 3 42 7 50 9 8 2 33 7 55 10 22
3 251 41 510 84 l470 79 40 -18 c22 -10 101 -45 175 -78 74 -33 169 -76 211
-95 123 -57 217 -97 226 -97 6 0 127 492 159 645 2 11 6 29 8 40 4 20 80 339
116 490 11 44 44 188 75 320 30 132 59 255 64 272 8 29 2 47 -53 160 -34 71
-70 147 -81 170 l-20 41 -130 26 c-71 14 -139 26 -150 26 -11 0 -139 -81 -285
-180z"/>
<path d="M4469 2399 c-4 -11 -7 -101 -14 -389 -4 -173 -8 -331 -9 -352 -2 -23
1 -35 8 -32 6 2 22 5 36 8 34 6 434 99 438 102 5 3 -17 36 -159 240 -70 100
-157 226 -194 280 -78 113 -104 148 -106 143z"/>
<path d="M2440 2048 c-19 -84 -33 -153 -31 -153 1 0 -2 -13 -8 -28 -6 -15 -13
-42 -16 -60 -4 -18 -28 -129 -56 -247 -27 -118 -51 -226 -55 -240 -3 -14 58
142 135 345 78 204 141 375 141 380 0 14 -64 154 -70 155 -3 0 -21 -69 -40
-152z"/>
<path d="M2510 1798 c-40 -101 -108 -275 -152 -388 -44 -113 -86 -218 -93
-235 -39 -89 -60 -163 -110 -390 -31 -137 -58 -256 -60 -263 -3 -9 21 -25 68
-46 39 -18 110 -51 157 -73 47 -22 143 -66 214 -98 l129 -59 101 51 c359 183
709 353 715 348 7 -4 68 -108 156 -266 83 -149 131 -229 138 -229 8 0 1 159
-8 209 -3 17 -12 109 -20 201 -3 30 -7 75 -10 100 -2 25 -7 70 -10 100 -3 30
-8 76 -10 103 -14 134 -22 219 -30 307 -4 36 -8 76 -10 90 -2 14 -6 57 -10 95
-3 39 -8 88 -10 110 -3 22 -12 114 -20 205 -9 91 -18 181 -20 200 -2 19 -4 48
-5 65 0 28 -1 28 -13 10 -8 -11 -48 -94 -90 -185 -41 -91 -99 -214 -127 -275
-29 -60 -74 -157 -100 -215 -26 -58 -70 -152 -98 -210 -27 -58 -53 -116 -56
-128 -4 -12 -12 -20 -17 -16 -9 5 -66 120 -214 429 -29 61 -87 182 -130 270
-42 88 -99 206 -126 263 -27 56 -51 102 -53 102 -2 0 -36 -82 -76 -182z"/>
<path d="M5889 1846 c-2 -3 -16 -7 -29 -9 -14 -3 -117 -28 -230 -55 -113 -28
-292 -71 -397 -97 -106 -26 -193 -50 -193 -54 0 -3 26 -43 58 -89 31 -45 158
-231 282 -412 124 -181 228 -329 231 -330 4 0 29 19 55 43 26 23 91 80 144
127 53 47 124 110 159 140 35 30 69 60 75 66 6 5 36 32 66 58 30 27 88 78 129
115 41 36 83 74 95 84 61 54 155 137 195 173 l45 41 -65 21 c-35 11 -158 51
-274 87 -115 36 -230 73 -254 81 -44 14 -84 18 -92 10z"/>
</g>
</svg>
